Percentage Difference in Contributions in and out of the State
…
group_summary 

## # A tibble: 55 x 6
##    cmte_state  total inState outState percentageIn percentageOut
##    <chr>       <int>   <dbl>    <dbl>        <dbl>         <dbl>
##  1 AK             83    20.0     63.0       0.241          0.759
##  2 AL           1441   402     1039         0.279          0.721
##  3 AR           1800   162     1638         0.0900         0.910
##  4 AZ           1567   415     1152         0.265          0.735
##  5 CA          19007  7119    11888         0.375          0.625
##  6 CO           3141   407     2734         0.130          0.870
##  7 CT           2223   297     1926         0.134          0.866
##  8 DC         206404 24175   182229         0.117          0.883
##  9 DE            711    42.0    669         0.0591         0.941
## 10 FL           7669  3736     3933         0.487          0.513
## # ... with 45 more rows
…
